[
  {
    "id": 1,
    "name": "Fruits & Vegetables",
    "slug": "fruits-vegetables",
    "icon": "FruitsVegetable",
    "image": [],
    "details": null,
    "parent": null,
    "type_id": 1,
    "created_at": "2021-03-08T07:21:31.000000Z",
    "updated_at": "2021-03-08T07:21:31.000000Z",
    "deleted_at": null,
    "parent_id": null,
    "type": {
      "id": 1,
      "name": "Grocery",
      "settings": {
        "isHome": true,
        "layoutType": "classic",
        "productCard": "neon"
      },
      "slug": "grocery",
      "icon": "FruitsVegetable",
      "created_at": "2021-03-08T07:18:25.000000Z",
      "updated_at": "2021-09-26T15:23:32.000000Z"
    },
  },
  {
    "id": 2,
    "name": "Fruits & Vegetables",
    "slug": "fruits-vegetables",
    "icon": "FruitsVegetable",
    "image": [],
    "details": null,
    "parent": null,
    "type_id": 1,
    "created_at": "2021-03-08T07:21:31.000000Z",
    "updated_at": "2021-03-08T07:21:31.000000Z",
    "deleted_at": null,
    "parent_id": null,
    "type": {
      "id": 1,
      "name": "Grocery",
      "settings": {
        "isHome": true,
        "layoutType": "classic",
        "productCard": "neon"
      },
      "slug": "grocery",
      "icon": "FruitsVegetable",
      "created_at": "2021-03-08T07:18:25.000000Z",
      "updated_at": "2021-09-26T15:23:32.000000Z"
    },
  }
]